developer-tier,data-harmonisation-designer,D065.docx
developer-tier,applications-builder,D077.docx
developer-tier,ai-analytics-designer,D074.docx
developer-tier,orchestration-designer,D068.docx
developer-tier,prediction-and-optimisation-designer,D092.docx
developer-tier,security-designer,D080.docx
edge-tier,data-acquisition,D059.docx
edge-tier,digital-twin,D098.docx
edge-tier,distributed-computing,D071.docx
edge-tier,non-destructive-inspection,D110.docx
enterprise-tier,application-runtime,D089.docx
enterprise-tier,human-collaboration,D083.docx
enterprise-tier,inter-platform-interoperability,D089.docx
enterprise-tier,marketplace,D080.docx
enterprise-tier,portal,D089.docx
enterprise-tier,secure-authentication-authorisation,D062.docx
enterprise-tier,secure-communication,D062.docx
enterprise-tier,secure-installation,D062.docx
enterprise-tier,storage,D080.docx
platform-tier,ai-analytics-runtime,D074.docx
platform-tier,autonomous-computing,D071.docx
platform-tier,monitoring-and-alerting,D068.docx
platform-tier,prediction-and-optimisation-runtime,D092.docx
platform-tier,process-assurance-runtime,D101.docx
platform-tier,product-assurance-runtime-quality-prediction,D107.docx
platform-tier,product-assurance-runtime-supervision,D113.docx
platform-tier,service-and-message-bus,D089.docx
